…
``` r
read_csv('data/1952.csv')
```

    ## 
    ## ── Column specification ────────────────────────────────────────────────────────
    ## cols(
    ##   country = col_character(),
    ##   continent = col_character(),
    ##   lifeExp = col_double(),
    ##   pop = col_double(),
    ##   gdpPercap = col_double()
    ## )

    ## # A tibble: 142 x 5
    ##    country     continent lifeExp      pop gdpPercap
    ##    <chr>       <chr>       <dbl>    <dbl>     <dbl>
    ##  1 Afghanistan Asia         28.8  8425333      779.
    ##  2 Albania     Europe       55.2  1282697     1601.
    ##  3 Algeria     Africa       43.1  9279525     2449.
    ##  4 Angola      Africa       30.0  4232095     3521.
    ##  5 Argentina   Americas     62.5 17876956     5911.
    ##  6 Australia   Oceania      69.1  8691212    10040.
    ##  7 Austria     Europe       66.8  6927772     6137.
    ##  8 Bahrain     Asia         50.9   120447     9867.
    ##  9 Bangladesh  Asia         37.5 46886859      684.
    ## 10 Belgium     Europe       68    8730405     8343.
    ## # … with 132 more rows
…
That printout obscures a lot of information, but it’s easy enough to
inspect an element at a time, using basic R notation for traversing into
lists:

``` r
files.read$csv[[1]]
```

    ## # A tibble: 142 x 5
    ##    country     continent lifeExp      pop gdpPercap
    ##    <chr>       <chr>       <dbl>    <dbl>     <dbl>
    ##  1 Afghanistan Asia         28.8  8425333      779.
    ##  2 Albania     Europe       55.2  1282697     1601.
    ##  3 Algeria     Africa       43.1  9279525     2449.
    ##  4 Angola      Africa       30.0  4232095     3521.
    ##  5 Argentina   Americas     62.5 17876956     5911.
    ##  6 Australia   Oceania      69.1  8691212    10040.
    ##  7 Austria     Europe       66.8  6927772     6137.
    ##  8 Bahrain     Asia         50.9   120447     9867.
    ##  9 Bangladesh  Asia         37.5 46886859      684.
    ## 10 Belgium     Europe       68    8730405     8343.
    ## # … with 132 more rows
…
full.data
```

    ## # A tibble: 1,704 x 6
    ##     year country     continent lifeExp      pop gdpPercap
    ##    <int> <chr>       <chr>       <dbl>    <dbl>     <dbl>
    ##  1  1952 Afghanistan Asia         28.8  8425333      779.
    ##  2  1952 Albania     Europe       55.2  1282697     1601.
    ##  3  1952 Algeria     Africa       43.1  9279525     2449.
    ##  4  1952 Angola      Africa       30.0  4232095     3521.
    ##  5  1952 Argentina   Americas     62.5 17876956     5911.
    ##  6  1952 Australia   Oceania      69.1  8691212    10040.
    ##  7  1952 Austria     Europe       66.8  6927772     6137.
    ##  8  1952 Bahrain     Asia         50.9   120447     9867.
    ##  9  1952 Bangladesh  Asia         37.5 46886859      684.
    ## 10  1952 Belgium     Europe       68    8730405     8343.
    ## # … with 1,694 more rows
…
